Debugging in RStudio – @mjfrigaard
…
(a) Step into/through check_pkg_ns() from pkg_data_results()

Figure 18: Step into and through check_pkg_ns() from pkg_data_results()

A final n command in the Console will return the output table:

Browse[2]> n
### A tibble: 129 × 3
##    Package         Item                Title
##    <chr>           <chr>               <chr>
##  1 fivethirtyeight US_births_1994_2003 Some People Are Too Superstitious To …
##  2 fivethirtyeight US_births_2000_2014 Some People Are Too Superstitious To …
##  3 fivethirtyeight ahca_polls          American Health Care Act Polls
##  4 fivethirtyeight airline_safety      Should Travelers Avoid Flying Airline…
##  5 fivethirtyeight antiquities_act     Trump Might Be The First President To…
##  6 fivethirtyeight august_senate_polls How Much Trouble Is Ted Cruz Really  …
##  7 fivethirtyeight avengers            Joining The Avengers Is As Deadly As
##  8 fivethirtyeight bachelorette        Bachelorette / Bachelor
##  9 fivethirtyeight bad_drivers         Dear Mona, Which State Has The Worst …
## 10 fivethirtyeight bechdel             The Dollar-And-Cents Case Against Hol…
## # ℹ 119 more rows
## # ℹ Use `print(n = ...)` to see more rows
…
